﻿Code,Omschrijving,Prijs,EAN
PA9W0048NL,Motorola Moto G6 Play - 32 GB - Deep Indigo (blauw),179,0723755124165
1313-6513,Sony Xperia XA2 - 32 GB - Zwart,294,7311271611615
80314126,Oral-B Genius 10000N Rose Gold Elektrische Tandenborstel,199,4210201203063
EA8110,Krups Arabica Picto EA8110 - Espressomachine - Zwart,319,0010942223450
WIT60R,Witte Reus Duo-Caps wasmiddel - 60 wasbeurten,13,5410091744069
